Actualización de base de datos interacción planta-abeja
…
# A tibble: 6 × 3
  Familia    genero        especie            
  <chr>      <chr>         <chr>              
1 Colletidae Colletes      Colletes.araucariae
2 Apidae     Centris       Centris.brethesi   
3 Halictidae Caenohalictus Caenohalictus.sp   
4 Colletidae Colletes      Colletes.bicolor   
5 Colletidae Colletes      Colletes.brethesi  
6 Colletidae Colletes      Colletes.cognatus  

names(especies.tabla) <- c("familia","genero","especie")
especies.tabla

# A tibble: 1,003 × 3
   familia      genero        especie                
   <chr>        <chr>         <chr>                  
 1 Colletidae   Colletes      Colletes.araucariae    
 2 Apidae       Centris       Centris.brethesi       
 3 Halictidae   Caenohalictus Caenohalictus.sp       
 4 Colletidae   Colletes      Colletes.bicolor       
 5 Colletidae   Colletes      Colletes.brethesi      
 6 Colletidae   Colletes      Colletes.cognatus      
 7 Megachilidae Megachile     Megachile.leucographa  
 8 Megachilidae Megachile     Megachile.nigella      
 9 Megachilidae Megachile     Megachile.obscurior    
10 Megachilidae Megachile     Megachile.pseudocentron
# ℹ 993 more rows
…
